{
  "project_info": {
    "project_number": "401087395809",
    "firebase_url": "https://albanian-radio.firebaseio.com",
    "project_id": "albanian-radio",
    "storage_bucket": "albanian-radio.appspot.com"
  },
  "client": [
    {
      "client_info": {
        "mobilesdk_app_id": "1:401087395809:android:d8353e286648e8c0",
        "android_client_info": {
          "package_name": "com.afganistanradios.kduo"
        }
      },
      "oauth_client": [
        {
          "client_id": "401087395809-0np70gsliaiu74m6g582sa437p21gn81.apps.googleusercontent.com",
          "client_type": 3
        }
      ],
      "api_key": [
        {
          "current_key": "AIzaSyDAjYpyk_-e-0rbJm3lmwucv44OD2tZyC8"
        }
      ],
      "services": {
        "analytics_service": {
          "status": 1
        },
        "appinvite_service": {
          "status": 1,
          "other_platform_oauth_client": []
        },
        "ads_service": {
          "status": 2
        }
      },
      "admob_app_id": "ca-app-pub-3231405590589504~4634118549"
    },
    {
      "client_info": {
        "mobilesdk_app_id": "1:401087395809:android:392c82e2e45ac568",
        "android_client_info": {
          "package_name": "com.albanianradios.kduo"
        }
      },
      "oauth_client": [
        {
          "client_id": "401087395809-0np70gsliaiu74m6g582sa437p21gn81.apps.googleusercontent.com",
          "client_type": 3
        }
      ],
      "api_key": [
        {
          "current_key": "AIzaSyDAjYpyk_-e-0rbJm3lmwucv44OD2tZyC8"
        }
      ],
      "services": {
        "analytics_service": {
          "status": 1
        },
        "appinvite_service": {
          "status": 1,
          "other_platform_oauth_client": []
        },
        "ads_service": {
          "status": 2
        }
      },
      "admob_app_id": "ca-app-pub-3231405590589504~5401034870"
    },
    {
      "client_info": {
        "mobilesdk_app_id": "1:401087395809:android:7193641423a4f32d",
        "android_client_info": {
          "package_name": "com.algeriaradios.kduo"
        }
      },
      "oauth_client": [
        {
          "client_id": "401087395809-0np70gsliaiu74m6g582sa437p21gn81.apps.googleusercontent.com",
          "client_type": 3
        }
      ],
      "api_key": [
        {
          "current_key": "AIzaSyDAjYpyk_-e-0rbJm3lmwucv44OD2tZyC8"
        }
      ],
      "services": {
        "analytics_service": {
          "status": 1
        },
        "appinvite_service": {
          "status": 1,
          "other_platform_oauth_client": []
        },
        "ads_service": {
          "status": 2
        }
      },
      "admob_app_id": "ca-app-pub-3231405590589504~9376417831"
    },
    {
      "client_info": {
        "mobilesdk_app_id": "1:401087395809:android:c391b839715edb9a",
        "android_client_info": {
          "package_name": "com.bosniaradios.kduo"
        }
      },
      "oauth_client": [
        {
          "client_id": "401087395809-0np70gsliaiu74m6g582sa437p21gn81.apps.googleusercontent.com",
          "client_type": 3
        }
      ],
      "api_key": [
        {
          "current_key": "AIzaSyDAjYpyk_-e-0rbJm3lmwucv44OD2tZyC8"
        }
      ],
      "services": {
        "analytics_service": {
          "status": 1
        },
        "appinvite_service": {
          "status": 1,
          "other_platform_oauth_client": []
        },
        "ads_service": {
          "status": 2
        }
      },
      "admob_app_id": "ca-app-pub-3231405590589504~5575487518"
    },
    {
      "client_info": {
        "mobilesdk_app_id": "1:401087395809:android:a3fa2ffedcf3c980",
        "android_client_info": {
          "package_name": "com.elsalvadorradios.kduo"
        }
      },
      "oauth_client": [
        {
          "client_id": "401087395809-0np70gsliaiu74m6g582sa437p21gn81.apps.googleusercontent.com",
          "client_type": 3
        }
      ],
      "api_key": [
        {
          "current_key": "AIzaSyDAjYpyk_-e-0rbJm3lmwucv44OD2tZyC8"
        }
      ],
      "services": {
        "analytics_service": {
          "status": 1
        },
        "appinvite_service": {
          "status": 1,
          "other_platform_oauth_client": []
        },
        "ads_service": {
          "status": 2
        }
      },
      "admob_app_id": "ca-app-pub-3231405590589504~8603728697"
    },
    {
      "client_info": {
        "mobilesdk_app_id": "1:401087395809:android:e8e1a2a29e0c98eb",
        "android_client_info": {
          "package_name": "com.ethiopiaradios.kduo"
        }
      },
      "oauth_client": [
        {
          "client_id": "401087395809-0np70gsliaiu74m6g582sa437p21gn81.apps.googleusercontent.com",
          "client_type": 3
        }
      ],
      "api_key": [
        {
          "current_key": "AIzaSyDAjYpyk_-e-0rbJm3lmwucv44OD2tZyC8"
        }
      ],
      "services": {
        "analytics_service": {
          "status": 1
        },
        "appinvite_service": {
          "status": 1,
          "other_platform_oauth_client": []
        },
        "ads_service": {
          "status": 2
        }
      },
      "admob_app_id": "ca-app-pub-3231405590589504~1408575706"
    },
    {
      "client_info": {
        "mobilesdk_app_id": "1:401087395809:android:cc64467f705513f8",
        "android_client_info": {
          "package_name": "com.gambia.kduo"
        }
      },
      "oauth_client": [
        {
          "client_id": "401087395809-0np70gsliaiu74m6g582sa437p21gn81.apps.googleusercontent.com",
          "client_type": 3
        }
      ],
      "api_key": [
        {
          "current_key": "AIzaSyDAjYpyk_-e-0rbJm3lmwucv44OD2tZyC8"
        }
      ],
      "services": {
        "analytics_service": {
          "status": 1
        },
        "appinvite_service": {
          "status": 1,
          "other_platform_oauth_client": []
        },
        "ads_service": {
          "status": 2
        }
      },
      "admob_app_id": "ca-app-pub-3231405590589504~1545550348"
    },
    {
      "client_info": {
        "mobilesdk_app_id": "1:401087395809:android:cca3d2ab45e88cde",
        "android_client_info": {
          "package_name": "com.ghanaradios.kduo"
        }
      },
      "oauth_client": [
        {
          "client_id": "401087395809-hs78cs3jdtt099qje4eledu3hqg26svb.apps.googleusercontent.com",
          "client_type": 1,
          "android_info": {
            "package_name": "com.ghanaradios.kduo",
            "certificate_hash": "4a62ccae253d0084d5c3d3b99c044094ca9a8f9e"
          }
        },
        {
          "client_id": "401087395809-0np70gsliaiu74m6g582sa437p21gn81.apps.googleusercontent.com",
          "client_type": 3
        }
      ],
      "api_key": [
        {
          "current_key": "AIzaSyDAjYpyk_-e-0rbJm3lmwucv44OD2tZyC8"
        }
      ],
      "services": {
        "analytics_service": {
          "status": 1
        },
        "appinvite_service": {
          "status": 2,
          "other_platform_oauth_client": [
            {
              "client_id": "401087395809-0np70gsliaiu74m6g582sa437p21gn81.apps.googleusercontent.com",
              "client_type": 3
            },
            {
              "client_id": "401087395809-m839e80pok9b1n87s32sb7ddkqt16339.apps.googleusercontent.com",
              "client_type": 2,
              "ios_info": {
                "bundle_id": "com.albradio.com",
                "app_store_id": "398429390"
              }
            }
          ]
        },
        "ads_service": {
          "status": 2
        }
      },
      "admob_app_id": "ca-app-pub-3231405590589504~5252659074"
    },
    {
      "client_info": {
        "mobilesdk_app_id": "1:401087395809:android:af6800c5996788e7",
        "android_client_info": {
          "package_name": "com.guatemalaradios.kduo"
        }
      },
      "oauth_client": [
        {
          "client_id": "401087395809-0np70gsliaiu74m6g582sa437p21gn81.apps.googleusercontent.com",
          "client_type": 3
        }
      ],
      "api_key": [
        {
          "current_key": "AIzaSyDAjYpyk_-e-0rbJm3lmwucv44OD2tZyC8"
        }
      ],
      "services": {
        "analytics_service": {
          "status": 1
        },
        "appinvite_service": {
          "status": 1,
          "other_platform_oauth_client": []
        },
        "ads_service": {
          "status": 2
        }
      },
      "admob_app_id": "ca-app-pub-3231405590589504~9972654250"
    },
    {
      "client_info": {
        "mobilesdk_app_id": "1:401087395809:android:90dbab154db33d18",
        "android_client_info": {
          "package_name": "com.haitiradiosandmusic.kduo"
        }
      },
      "oauth_client": [
        {
          "client_id": "401087395809-0np70gsliaiu74m6g582sa437p21gn81.apps.googleusercontent.com",
          "client_type": 3
        }
      ],
      "api_key": [
        {
          "current_key": "AIzaSyDAjYpyk_-e-0rbJm3lmwucv44OD2tZyC8"
        }
      ],
      "services": {
        "analytics_service": {
          "status": 1
        },
        "appinvite_service": {
          "status": 1,
          "other_platform_oauth_client": []
        },
        "ads_service": {
          "status": 2
        }
      },
      "admob_app_id": "ca-app-pub-3231405590589504~5946671875"
    },
    {
      "client_info": {
        "mobilesdk_app_id": "1:401087395809:android:1eba70e0367d809c",
        "android_client_info": {
          "package_name": "com.honduras.kduo"
        }
      },
      "oauth_client": [
        {
          "client_id": "401087395809-0np70gsliaiu74m6g582sa437p21gn81.apps.googleusercontent.com",
          "client_type": 3
        }
      ],
      "api_key": [
        {
          "current_key": "AIzaSyDAjYpyk_-e-0rbJm3lmwucv44OD2tZyC8"
        }
      ],
      "services": {
        "analytics_service": {
          "status": 1
        },
        "appinvite_service": {
          "status": 1,
          "other_platform_oauth_client": []
        },
        "ads_service": {
          "status": 2
        }
      },
      "admob_app_id": "ca-app-pub-3231405590589504~6688011796"
    },
    {
      "client_info": {
        "mobilesdk_app_id": "1:401087395809:android:e9ee03617fece9e1",
        "android_client_info": {
          "package_name": "com.maliradios.kduo"
        }
      },
      "oauth_client": [
        {
          "client_id": "401087395809-0np70gsliaiu74m6g582sa437p21gn81.apps.googleusercontent.com",
          "client_type": 3
        }
      ],
      "api_key": [
        {
          "current_key": "AIzaSyDAjYpyk_-e-0rbJm3lmwucv44OD2tZyC8"
        }
      ],
      "services": {
        "analytics_service": {
          "status": 1
        },
        "appinvite_service": {
          "status": 1,
          "other_platform_oauth_client": []
        },
        "ads_service": {
          "status": 2
        }
      },
      "admob_app_id": "ca-app-pub-3231405590589504~9039739073"
    },
    {
      "client_info": {
        "mobilesdk_app_id": "1:401087395809:android:d018d485a1f97c5b",
        "android_client_info": {
          "package_name": "com.mcakir.radio"
        }
      },
      "oauth_client": [
        {
          "client_id": "401087395809-0np70gsliaiu74m6g582sa437p21gn81.apps.googleusercontent.com",
          "client_type": 3
        }
      ],
      "api_key": [
        {
          "current_key": "AIzaSyDAjYpyk_-e-0rbJm3lmwucv44OD2tZyC8"
        }
      ],
      "services": {
        "analytics_service": {
          "status": 1
        },
        "appinvite_service": {
          "status": 1,
          "other_platform_oauth_client": []
        },
        "ads_service": {
          "status": 2
        }
      }
    },
    {
      "client_info": {
        "mobilesdk_app_id": "1:401087395809:android:2334eecd0237fcba",
        "android_client_info": {
          "package_name": "com.mexicoradios.kduo"
        }
      },
      "oauth_client": [
        {
          "client_id": "401087395809-0np70gsliaiu74m6g582sa437p21gn81.apps.googleusercontent.com",
          "client_type": 3
        }
      ],
      "api_key": [
        {
          "current_key": "AIzaSyDAjYpyk_-e-0rbJm3lmwucv44OD2tZyC8"
        }
      ],
      "services": {
        "analytics_service": {
          "status": 1
        },
        "appinvite_service": {
          "status": 1,
          "other_platform_oauth_client": []
        },
        "ads_service": {
          "status": 2
        }
      },
      "admob_app_id": "ca-app-pub-3231405590589504~1288796132"
    },
    {
      "client_info": {
        "mobilesdk_app_id": "1:401087395809:android:ac03ffabbbe39fb7",
        "android_client_info": {
          "package_name": "com.moroccoradios.kduo"
        }
      },
      "oauth_client": [
        {
          "client_id": "401087395809-0np70gsliaiu74m6g582sa437p21gn81.apps.googleusercontent.com",
          "client_type": 3
        }
      ],
      "api_key": [
        {
          "current_key": "AIzaSyDAjYpyk_-e-0rbJm3lmwucv44OD2tZyC8"
        }
      ],
      "services": {
        "analytics_service": {
          "status": 1
        },
        "appinvite_service": {
          "status": 1,
          "other_platform_oauth_client": []
        },
        "ads_service": {
          "status": 2
        }
      },
      "admob_app_id": "ca-app-pub-3231405590589504~8610131076"
    },
    {
      "client_info": {
        "mobilesdk_app_id": "1:401087395809:android:c71580f6e9bf5d0c",
        "android_client_info": {
          "package_name": "com.nicaragua.kduo"
        }
      },
      "oauth_client": [
        {
          "client_id": "401087395809-0np70gsliaiu74m6g582sa437p21gn81.apps.googleusercontent.com",
          "client_type": 3
        }
      ],
      "api_key": [
        {
          "current_key": "AIzaSyDAjYpyk_-e-0rbJm3lmwucv44OD2tZyC8"
        }
      ],
      "services": {
        "analytics_service": {
          "status": 1
        },
        "appinvite_service": {
          "status": 1,
          "other_platform_oauth_client": []
        },
        "ads_service": {
          "status": 2
        }
      },
      "admob_app_id": "ca-app-pub-3231405590589504~3284543704"
    },
    {
      "client_info": {
        "mobilesdk_app_id": "1:401087395809:android:dcf51eb15c66779a",
        "android_client_info": {
          "package_name": "com.panamaradios.kduo"
        }
      },
      "oauth_client": [
        {
          "client_id": "401087395809-0np70gsliaiu74m6g582sa437p21gn81.apps.googleusercontent.com",
          "client_type": 3
        }
      ],
      "api_key": [
        {
          "current_key": "AIzaSyDAjYpyk_-e-0rbJm3lmwucv44OD2tZyC8"
        }
      ],
      "services": {
        "analytics_service": {
          "status": 1
        },
        "appinvite_service": {
          "status": 1,
          "other_platform_oauth_client": []
        },
        "ads_service": {
          "status": 2
        }
      },
      "admob_app_id": "ca-app-pub-3231405590589504~2937893490"
    },
    {
      "client_info": {
        "mobilesdk_app_id": "1:401087395809:android:dfb54ec8b4b735f7",
        "android_client_info": {
          "package_name": "com.senegalradiosandmusic.kduo"
        }
      },
      "oauth_client": [
        {
          "client_id": "401087395809-0np70gsliaiu74m6g582sa437p21gn81.apps.googleusercontent.com",
          "client_type": 3
        }
      ],
      "api_key": [
        {
          "current_key": "AIzaSyDAjYpyk_-e-0rbJm3lmwucv44OD2tZyC8"
        }
      ],
      "services": {
        "analytics_service": {
          "status": 1
        },
        "appinvite_service": {
          "status": 1,
          "other_platform_oauth_client": []
        },
        "ads_service": {
          "status": 2
        }
      },
      "admob_app_id": "ca-app-pub-3231405590589504~9179339878"
    },
    {
      "client_info": {
        "mobilesdk_app_id": "1:401087395809:android:f1f199b417d59647",
        "android_client_info": {
          "package_name": "com.somaliaradios.kduo"
        }
      },
      "oauth_client": [
        {
          "client_id": "401087395809-0np70gsliaiu74m6g582sa437p21gn81.apps.googleusercontent.com",
          "client_type": 3
        }
      ],
      "api_key": [
        {
          "current_key": "AIzaSyDAjYpyk_-e-0rbJm3lmwucv44OD2tZyC8"
        }
      ],
      "services": {
        "analytics_service": {
          "status": 1
        },
        "appinvite_service": {
          "status": 1,
          "other_platform_oauth_client": []
        },
        "ads_service": {
          "status": 2
        }
      },
      "admob_app_id": "ca-app-pub-3231405590589504~8294161958"
    },
    {
      "client_info": {
        "mobilesdk_app_id": "1:401087395809:android:c5512e4d4aaca0c5",
        "android_client_info": {
          "package_name": "com.turkey.kduo"
        }
      },
      "oauth_client": [
        {
          "client_id": "401087395809-0np70gsliaiu74m6g582sa437p21gn81.apps.googleusercontent.com",
          "client_type": 3
        }
      ],
      "api_key": [
        {
          "current_key": "AIzaSyDAjYpyk_-e-0rbJm3lmwucv44OD2tZyC8"
        }
      ],
      "services": {
        "analytics_service": {
          "status": 1
        },
        "appinvite_service": {
          "status": 1,
          "other_platform_oauth_client": []
        },
        "ads_service": {
          "status": 2
        }
      },
      "admob_app_id": "ca-app-pub-3231405590589504~2224207199"
    }
  ],
  "configuration_version": "1"
}